{
	"info": {
		"_postman_id": "bebd2f54-894f-4209-8e83-91ab5e536cef",
		"name": "SpaceAgencyDatahub",
		"schema": "https://schema.getpostman.com/json/collection/v2.1.0/collection.json"
	},
	"item": [
		{
			"name": "Get Product List",
			"protocolProfileBehavior": {
				"disableBodyPruning": true
			},
			"request": {
				"method": "GET",
				"header": [
					{
						"key": "Content-Type",
						"value": "application/json",
						"type": "text",
						"disabled": true
					}
				],
				"body": {
					"mode": "raw",
					"raw": ""
				},
				"url": {
					"raw": "http://localhost:8080/api/product",
					"protocol": "http",
					"host": [
						"localhost"
					],
					"port": "8080",
					"path": [
						"api",
						"product"
					]
				}
			},
			"response": []
		},
		{
			"name": "Post Product",
			"request": {
				"auth": {
					"type": "basic",
					"basic": [
						{
							"key": "password",
							"value": "password1",
							"type": "string"
						},
						{
							"key": "username",
							"value": "admin",
							"type": "string"
						}
					]
				},
				"method": "POST",
				"header": [
					{
						"key": "Content-Type",
						"value": "application/json",
						"type": "text"
					}
				],
				"body": {
					"mode": "raw",
					"raw": "{\"url\":\"http://example.com/prod/1\"}"
				},
				"url": {
					"raw": "http://localhost:8080/api/product",
					"protocol": "http",
					"host": [
						"localhost"
					],
					"port": "8080",
					"path": [
						"api",
						"product"
					]
				}
			},
			"response": []
		},
		{
			"name": "Post Mission",
			"request": {
				"auth": {
					"type": "noauth"
				},
				"method": "POST",
				"header": [
					{
						"key": "Content-Type",
						"value": "application/json",
						"type": "text"
					}
				],
				"body": {
					"mode": "raw",
					"raw": "{\n\t\"name\": \"Mission 22\",\n\t\"type\":\"HYPERSPECTRAL\"\n}"
				},
				"url": {
					"raw": "http://localhost:8080/api/mission",
					"protocol": "http",
					"host": [
						"localhost"
					],
					"port": "8080",
					"path": [
						"api",
						"mission"
					]
				}
			},
			"response": []
		},
		{
			"name": "Mission List",
			"request": {
				"method": "GET",
				"header": [],
				"url": {
					"raw": "http://localhost:8080/api/mission",
					"protocol": "http",
					"host": [
						"localhost"
					],
					"port": "8080",
					"path": [
						"api",
						"mission"
					]
				}
			},
			"response": []
		},
		{
			"name": "Place An Order",
			"request": {
				"method": "POST",
				"header": [
					{
						"key": "Content-Type",
						"value": "application/json",
						"type": "text"
					}
				],
				"body": {
					"mode": "raw",
					"raw": "{\n\t\"customerName\":\"Customer1\",\n\t\"product\": [\n\t    {\n        \t\"id\": 1,\n        \t\"missionName\": \"Mission 1\",\n        \t\"acquisitionDate\": \"2020-03-16T13:46:52.560068+01:00\",\n        \t\"price\": 125,\n        \t\"coordinates\": {\n            \t\"id\": 2,\n            \t\"x1\": 10.12,\n            \t\"x2\": 12.12,\n            \t\"y1\": 10.11,\n            \t\"y2\": 14.1\n        \t},\n        \t\"url\": \"http://name.pl/p/1\"\n    \t}\n\t]\n\n}"
				},
				"url": {
					"raw": "http://localhost:8080/api/order",
					"protocol": "http",
					"host": [
						"localhost"
					],
					"port": "8080",
					"path": [
						"api",
						"order"
					]
				}
			},
			"response": []
		},
		{
			"name": "Update Product",
			"request": {
				"auth": {
					"type": "noauth"
				},
				"method": "PUT",
				"header": [
					{
						"key": "Content-Type",
						"value": "application/json",
						"type": "text"
					}
				],
				"body": {
					"mode": "raw",
					"raw": "{\n\t\"url\":\"http://name.pl/p/1\",\n\t\"price\": 125,\n\t\"missionName\":\"Mission 1\",\n\t\"coordinates\": {\n\t\t\"x1\": 10.12,\n\t\t\"x2\": 12.12,\n\t\t\"y1\": 10.11,\n\t\t\"y2\": 14.10\n\t}\n}"
				},
				"url": {
					"raw": "http://localhost:8080/api/product/1",
					"protocol": "http",
					"host": [
						"localhost"
					],
					"port": "8080",
					"path": [
						"api",
						"product",
						"1"
					],
					"query": [
						{
							"key": "",
							"value": null,
							"disabled": true
						}
					]
				}
			},
			"response": []
		}
	],
	"protocolProfileBehavior": {}
}